[
    {
        "id":1,
        "name": "Huawei X5",
        "category": "Elettronica",
        "price": "120.12"
    },
    {
        "id": 2,
        "name": "Fiat 500",
        "category": "Motori",
        "price": "2000.32"
    },
    {
        "id": 3,
        "name": "Mazza da Baseball",
        "category": "Sport",
        "price": "20.15"
    },
    {
        "id": 4,
        "name": "Bilocale",
        "category": "Immobili",
        "price": "30000.54"
    },
    {
        "id": 5,
        "name": "Felpa usata",
        "category": "Abbigliamento",
        "price": "10.42"
    },
    {
        "id": 6,
        "name": "Divani due posti",
        "category": "Arredamento",
        "price":"400.64"
    },
    {
        "id": 7,
        "name": "Pala",
        "category": "Giardinaggio",
        "price":"30.45"
    },
    {
        "id": 8,
        "name": "Master of Pupo",
        "category": "Musica",
        "price": "15.64"
    },
    {
        "id": 9,
        "name": "TV Samsung",
        "category": "Elettronica",
        "price": "230.42"
    },
    {
        "id": 10,
        "name": "Ford Puma",
        "category": "Motori",
        "price": "25000.02"
    },
    {
        "id": 11,
        "name": "Pallone da calcio",
        "category": "Sport",
        "price": "30.12"
    },
    {
        "id": 12,
        "name": "Trilocale",
        "category": "Immobili",
        "price": "55000.54"
    },
    {
        "id": 13,
        "name": "Sciarpa scolorita",
        "category": "Abbigliamento",
        "price": "5.23"
    },
    {
        "id": 14,
        "name": "Lampada",
        "category": "Arredamento",
        "price": "70.65"
    },
    {
        "id": 15,
        "name": "Concime",
        "category": "Giardinaggio",
        "price": "2.45"
    },
    {
        "id": 16,
        "name": "Basso nuovo",
        "category": "Musica",
        "price": "300.62"
    },
    {
        "id": 17,
        "name": "Cuffie Sony",
        "category": "Elettronica",
        "price": "120.65"
    },
    {
        "id": 18,
        "name": "Ducati Monster",
        "category": "Motori",
        "price": "12000.13"
    },
    {
        "id": 19,
        "name": "Pattini",
        "category": "Sport",
        "price": "90.64"
    },
    {
        "id": 21,
        "name": "Guanti invernali",
        "category": "Abbigliamento",
        "price": "22.04"
    },
    {
        "id": 22,
        "name": "Scrivania in vetro",
        "category": "Arredamento",
        "price": "600.63"
    },
    {
        "id": 23,
        "name": "Secchio",
        "category": "Giardinaggio",
        "price": "30.43"
    },
    {
        "id": 24,
        "name": "Compilation Pupo",
        "category": "Musica",
        "price": "9.93"
    },
    {
        "id": 25,
        "name": "Auricolari Sennheiser",
        "category": "Elettronica",
        "price": "120.93"
    },
    {
        "id": 26,
        "name": "Fiat 300",
        "category": "Motori",
        "price": "2560.42"
    },
    {
        "id": 27,
        "name": "Set mazze da golf",
        "category": "Sport",
        "price": "4320.43"
    },
    {
        "id": 28,
        "name": "Posto augo",
        "category": "Immobili",
        "price": "2200.63"
    },
    {
        "id": 29,
        "name": "Zaino Decathlon",
        "category": "Abbigliamento",
        "price": "55.55"
    },
    {
        "id": 30,
        "name": "Comodino",
        "category": "Arredamento",
        "price": "210.12"
    },
    {
        "id": 31,
        "name": "Rastrello",
        "category": "Giardinaggio",
        "price": "5.62"
    },
    {
        "id": 32,
        "name": "Compilation Nino D'Angelo",
        "category": "Musica",
        "price": "1.91"
    },
    {
        "id": 33,
        "name": "IPhone X",
        "category": "Elettronica",
        "price": "1300.41"
    },
    {
        "id": 34,
        "name": "Nissan Juke",
        "category": "Motori",
        "price": "25420.40"
    },
    {
        "id": 35,
        "name": "Guanti da palestra",
        "category": "Sport",
        "price": "11.54"
    },
    {
        "id": 37,
        "name": "Scarpe Nike",
        "category": "Abbigliamento",
        "price": "240.33"
    },
    {
        "id": 38,
        "name": "Poltrona",
        "category": "Arredamento",
        "price": "420.66"
    },
    {
        "id": 39,
        "name": "Semi",
        "category": "Giardinaggio",
        "price": "4.43"
    },
    {
        "id": 40,
        "name": "Biglietto Gods Of Metal",
        "category": "Musica",
        "price": "150.65"
    },
    {
        "id": 41,
        "name": "Macbook Pro",
        "category": "Elettronica",
        "price": "2340.37"
    },
    {
        "id": 42,
        "name": "Dacia Duster",
        "category": "Motori",
        "price": "13350.73"
    },
    {
        "id": 43,
        "name": "Canoa",
        "category": "Sport",
        "price": "520.03"
    },
    {
        "id": 44,
        "name": "Cantina",
        "category": "Immobili",
        "price": "20000.12"
    },
    {
        "id": 45,
        "name": "Jeans",
        "category": "Abbigliamento",
        "price": "55.54"
    },
    {
        "id": 46,
        "name": "Lampadario",
        "category": "Arredamento",
        "price": "280.54"
    },
    {
        "id": 47,
        "name": "Trattore",
        "category": "Giardinaggio",
        "price": "12000.09"
    },
    {
        "id": 48,
        "name": "Plettro",
        "category": "Musica",
        "price": "0.99"
    },
    {
        "id": 49,
        "name": "Modem",
        "category": "Mimmo",
        "price": "2.99"
    }
]